Data Analysis and Visualisation with R - Part2:Collection, cleaning and transformation
…
mutate() creates new columns that are functions of existing variables. It can also modify (if the name is the same as an existing column) existing columns. In the second case you just overwrite the original data, with the new data.

Here are some examples with the penguins_data:

Show/Hide Code

# Let's finally look at mutate 
# which gives us the options to create new columns 

penguins_data%>%
               group_by(species)%>%
                  mutate(avg_weight = mean(body_mass_g,na.rm=TRUE))

# A tibble: 344 × 9
# Groups:   species [3]
   species island    bill_length_mm bill_depth_mm flipper_length_mm body_mass_g
   <fct>   <fct>              <dbl>         <dbl>             <int>       <int>
 1 Adelie  Torgersen           39.1          18.7               181        3750
 2 Adelie  Torgersen           39.5          17.4               186        3800
 3 Adelie  Torgersen           40.3          18                 195        3250
 4 Adelie  Torgersen           NA            NA                  NA          NA
 5 Adelie  Torgersen           36.7          19.3               193        3450
 6 Adelie  Torgersen           39.3          20.6               190        3650
 7 Adelie  Torgersen           38.9          17.8               181        3625
 8 Adelie  Torgersen           39.2          19.6               195        4675
 9 Adelie  Torgersen           34.1          18.1               193        3475
10 Adelie  Torgersen           42            20.2               190        4250
# ℹ 334 more rows
# ℹ 3 more variables: sex <fct>, year <int>, avg_weight <dbl>
…
# This is the longer version
penguins_data%>%
            group_by(species)%>%
              summarise(species_count =n())%>%
                mutate(total_sample = sum(species_count))%>%
                  mutate(percentage = species_count/total_sample)%>%view()

# Let's use the median to decide whether penguins are light or heavy
penguins_data%>%mutate(median_weight = median(body_mass_g,na.rm=TRUE))%>%
                  mutate(weight_category = case_when(
                                          body_mass_g<median_weight ~ 'light_penguin',
                                          body_mass_g>median_weight ~ 'heavy_penguin'))%>%
    select(species,weight_category)

# A tibble: 344 × 2
   species weight_category
   <fct>   <chr>          
 1 Adelie  light_penguin  
 2 Adelie  light_penguin  
 3 Adelie  light_penguin  
 4 Adelie  <NA>           
 5 Adelie  light_penguin  
 6 Adelie  light_penguin  
 7 Adelie  light_penguin  
 8 Adelie  heavy_penguin  
 9 Adelie  light_penguin  
10 Adelie  heavy_penguin  
# ℹ 334 more rows
…
The relig_income case

Show/Hide Code

# relig_income:column headers are values not variable names->we need to make a wide data.frame longer

# relig_income is messy / not tidy ... how can we make it tidy?
relig_income<-relig_income

relig_income%>%pivot_longer(cols=2:11,
                              names_to = 'income_range',
                                  values_to ='count')

# A tibble: 180 × 3
   religion income_range       count
   <chr>    <chr>              <dbl>
 1 Agnostic <$10k                 27
 2 Agnostic $10-20k               34
 3 Agnostic $20-30k               60
 4 Agnostic $30-40k               81
 5 Agnostic $40-50k               76
 6 Agnostic $50-75k              137
 7 Agnostic $75-100k             122
 8 Agnostic $100-150k            109
 9 Agnostic >150k                 84
10 Agnostic Don't know/refused    96
# ℹ 170 more rows
…
