Data Analysis and Visualisation with R - Part1:Collection, cleaning and transformation
…
Let them eat cake

Let’s have a look at the penguins data and do a first little bar chart of the penguins.

Show/Hide Code

# We save the built-in dataset into a data.frame/tibble that lives in your environment.
penguins_data<-penguins
penguins_data

# A tibble: 344 × 8
   species island    bill_length_mm bill_depth_mm flipper_length_mm body_mass_g
   <fct>   <fct>              <dbl>         <dbl>             <int>       <int>
 1 Adelie  Torgersen           39.1          18.7               181        3750
 2 Adelie  Torgersen           39.5          17.4               186        3800
 3 Adelie  Torgersen           40.3          18                 195        3250
 4 Adelie  Torgersen           NA            NA                  NA          NA
 5 Adelie  Torgersen           36.7          19.3               193        3450
 6 Adelie  Torgersen           39.3          20.6               190        3650
 7 Adelie  Torgersen           38.9          17.8               181        3625
 8 Adelie  Torgersen           39.2          19.6               195        4675
 9 Adelie  Torgersen           34.1          18.1               193        3475
10 Adelie  Torgersen           42            20.2               190        4250
# ℹ 334 more rows
# ℹ 2 more variables: sex <fct>, year <int>
…
Select()

It is often the case that you only need a subset of the data for further processing or visualisation. In these situations the select() function becomes handy, as it allows us to select only the needed columns or variables from the data.frame. Select() has many different ways of how it can be used. Here it is worth to look at the documentation to get an overview of what the options are.

Show/Hide Code

# Let's now look into selecting different columnns
# we use the select() function for that 

# by column name
penguins_data%>%select(species,island,body_mass_g)

# A tibble: 344 × 3
   species island    body_mass_g
   <fct>   <fct>           <int>
 1 Adelie  Torgersen        3750
 2 Adelie  Torgersen        3800
 3 Adelie  Torgersen        3250
 4 Adelie  Torgersen          NA
 5 Adelie  Torgersen        3450
 6 Adelie  Torgersen        3650
 7 Adelie  Torgersen        3625
 8 Adelie  Torgersen        4675
 9 Adelie  Torgersen        3475
10 Adelie  Torgersen        4250
# ℹ 334 more rows
…
Now it is on you again, to perform some exercises with the usability_test_results.csv. Try do do the following:

Create a data frame that only contains the columns: participant_id, age, and trips per year.

Create a data frame that contains column 2 and tot_task3.

Create a data frame that contains participant_id and all columns that are related to task1.

Show/Hide Code

#Select participant_id, age and trips per year
usability_test_results%>%select(participant_id,age,trips_per_year)

# A tibble: 30 × 3
   participant_id age   trips_per_year
   <chr>          <chr>          <dbl>
 1 id_1           22-29             15
 2 id_2           22-29             10
 3 id_3           51-64              0
 4 id_4           19-21              5
 5 id_5           30-40              3
 6 id_6           19-21              5
 7 id_7           51-64              4
 8 id_8           22-29              2
 9 id_9           22-29             13
10 id_10          22-29              4
# ℹ 20 more rows
…
